﻿From;To;Type;VehPerHour
North;North;passenger;0
North;South;passenger;2
North;East;passenger;3
North;West;passenger;10
North;North;truck;0
North;South;truck;0
North;East;truck;1
North;West;truck;0
North;North;pedestrian;0
North;South;pedestrian;10
North;East;pedestrian;1
North;West;pedestrian;1
South;North;passenger;6
South;South;passenger;0
South;East;passenger;18
South;West;passenger;41
South;North;truck;0
South;South;truck;0
South;East;truck;1
South;West;truck;0
South;North;pedestrian;3
South;South;pedestrian;0
South;East;pedestrian;5
South;West;pedestrian;17
East;North;passenger;6
East;South;passenger;12
East;East;passenger;0
East;West;passenger;460
East;North;truck;0
East;South;truck;0
East;East;truck;0
East;West;truck;48
East;North;pedestrian;2
East;South;pedestrian;1
East;East;pedestrian;0
East;West;pedestrian;40
West;North;passenger;4
West;South;passenger;9
West;East;passenger;235
West;West;passenger;0
West;North;truck;0
West;South;truck;1
West;East;truck;28
West;West;truck;0
West;North;pedestrian;1
West;South;pedestrian;0
West;East;pedestrian;24
West;West;pedestrian;0